-------------------------------------------------------------------------------
Test set: nl.mojiweb.joey.han.spotitube.service.authentication.JBCryptPasswordVerificationServiceImplTest
-------------------------------------------------------------------------------
Tests run: 2, Failures: 0, Errors: 0, Skipped: 0, Time elapsed: 1.363 s - in nl.mojiweb.joey.han.spotitube.service.authentication.JBCryptPasswordVerificationServiceImplTest
