-------------------------------------------------------------------------------
Test set: nl.mojiweb.joey.han.spotitube.resource.exceptionmapper.InvalidTokenExceptionMapperTest
-------------------------------------------------------------------------------
Tests run: 1, Failures: 0, Errors: 0, Skipped: 0, Time elapsed: 0 s - in nl.mojiweb.joey.han.spotitube.resource.exceptionmapper.InvalidTokenExceptionMapperTest
