-------------------------------------------------------------------------------
Test set: nl.mojiweb.joey.han.spotitube.resource.LoginResourceTest
-------------------------------------------------------------------------------
Tests run: 2, Failures: 0, Errors: 0, Skipped: 0, Time elapsed: 0 s - in nl.mojiweb.joey.han.spotitube.resource.LoginResourceTest
